<?xml version="1.0" encoding="utf-8"?>
<!-- Generator: Adobe Illustrator 21.1.0, SVG Export Plug-In . SVG Version: 6.00 Build 0)  -->
<svg version="1.1" id="Layer_1" xmlns="http://www.w3.org/2000/svg" xmlns:xlink="http://www.w3.org/1999/xlink" x="0px" y="10px"
	 viewBox="-5 -5 310 310" style="enable-background:new 0 0 302 302;" xml:space="preserve">
<style type="text/css">
	.st0{fill:#FFFFFF;stroke:#FFFFFF;stroke-width:7px;stroke-miterlimit:10;}
</style>
<title>Asset 1</title>
<g id="Layer_2">
	<g id="Layer_1-2">
		<path class="st0" d="M158.5,206c-7.6,0-13.8-6.2-13.8-13.8c0-0.9,0.1-1.7,0.2-2.6c0.9-4.7,6.5-33.5,7.4-38.3
			c-0.6,0.2-30.1-0.1-30.1-0.1L92.7,55.4c-1.1-3.4-4.8-5.3-8.3-4.2c-3.4,1.1-5.2,4.7-4.3,8l28.4,91.9H87c-4.5,0-8.2,3.7-8.2,8.2
			v93.1H58.1c0.4-0.6,0.7-1.3,0.8-2l9.3-51.7c0.5-2.7-1.3-5.3-4.1-5.8c-0.3,0-0.6-0.1-0.8-0.1H13.5c-2.8,0-5,2.2-5,5
			c0,0.3,0,0.6,0.1,0.9l9.3,51.7c0.1,0.7,0.4,1.4,0.8,2h-7.1c-5.9,0-10.6,4.8-10.6,10.6v15.1c0,3.6,2.9,6.6,6.6,6.6h7.3
			c0-0.1,0-0.2,0-0.3c0-14.2,11.5-25.7,25.7-25.7s25.7,11.5,25.7,25.7c0,0.1,0,0.2,0,0.3h27.4c0-0.1,0-0.2,0-0.3
			c0-14.2,11.5-25.7,25.7-25.7s25.7,11.5,25.7,25.7c0,0.1,0,0.2,0,0.3h8.6c3.6,0,6.6-2.9,6.6-6.6V206H158.5z"/>
		<path class="st0" d="M119.3,267.7c-9,0-16.3,7.3-16.3,16.3c0,9,7.3,16.3,16.3,16.3c9,0,16.3-7.3,16.3-16.3
			C135.6,275,128.3,267.7,119.3,267.7C119.3,267.7,119.3,267.7,119.3,267.7z M119.3,289.8c-3.2,0-5.8-2.6-5.8-5.8
			c0-3.2,2.6-5.8,5.8-5.8c3.2,0,5.8,2.6,5.8,5.8l0,0C125.1,287.2,122.5,289.8,119.3,289.8L119.3,289.8z"/>
		<path class="st0" d="M40.6,267.7c-9,0-16.3,7.3-16.3,16.3s7.3,16.3,16.3,16.3S56.9,293,56.9,284c0,0,0,0,0,0
			C56.9,275,49.6,267.7,40.6,267.7C40.6,267.7,40.6,267.7,40.6,267.7z M40.6,289.8c-3.2,0-5.8-2.6-5.8-5.8s2.6-5.8,5.8-5.8
			s5.8,2.6,5.8,5.8l0,0C46.4,287.2,43.8,289.8,40.6,289.8L40.6,289.8z"/>
		<path class="st0" d="M301,260.8c0-10.4-7-19.5-17.1-22.2l-0.1-121.4l3.4-1.4c6-2.5,8.9-9.4,6.4-15.4c-1.7-4-5.4-6.8-9.8-7.2
			l-0.1-73c0-3.3-2.6-5.9-5.9-5.9l0,0c-3.3,0-5.9,2.6-5.9,5.9l0.1,76.3l-17,7.1c-3.3-8.2-6.1-14.7-8.4-21.4
			c-4.4-12.8-11.2-20.5-20.3-23.1l-10.3,29.1l12,75.8c0.5,3.4-1.8,6.5-5.1,7.1c-0.3,0.1-0.6,0.1-1,0.1c-14.7,0-27.3-0.1-46.4-0.1
			c-3.2,0-5.8-2.6-5.8-5.8c0-0.3,0-0.6,0.1-1l2.6-14.9l-11.2-5.4l-9.1,46.9c-0.7,3.6,1.6,7,5.2,7.7c0.4,0.1,0.8,0.1,1.2,0.1h9v87.5
			c0,7.8,6.3,14.1,14.1,14.1c7.8,0,14.1-6.3,14.1-14.1c0,0,0,0,0,0v-87.5h6.1v87.5c0,7.8,6.3,14.1,14.1,14.1
			c7.8,0,14.1-6.3,14.1-14.1c0,0,0,0,0,0v-87.5h9c3.6,0,6.6-2.9,6.6-6.5c0-0.4,0-0.8-0.1-1.3l-16.9-89.4c0.5,1.3,6.2,15,8.6,21.7
			c2.2,6.1,9,9.3,15.1,7.1c0.2-0.1,0.3-0.1,0.5-0.2l19.1-8l0.1,116.5c-10,2.7-17,11.8-17,22.2v1.7H301L301,260.8z"/>
		<path class="st0" d="M301,271.7h-45.9v20.6c0,4.5,10.3,8.1,23,8.1s23-3.6,23-8.1L301,271.7z"/>
		<circle class="st0" cx="198.8" cy="26" r="24.4"/>
		<path class="st0" d="M180.5,58.2c2,5.7,8,22.5,10.2,28.9h15.8l10.2-28.9H180.5z"/>
		<path class="st0" d="M190.6,123.8c-28.1-13.6-20.6-9.9-29-14.2l13.3-21.7l-5,17.5l9.2,4.4l2.6-20.8l-10.5-29.7
			c-4.5,1.4-8.4,4.2-11.2,8c-3.2,4-24.7,39.8-25.4,40.8c-3.5,5.5-1.9,12.8,3.5,16.3c0.4,0.3,0.8,0.5,1.2,0.7l41.1,20
			c5.9,2.9,13,0.4,15.8-5.5S196.5,126.6,190.6,123.8z"/>
	</g>
</g>
</svg>
