<?xml version="1.0" encoding="utf-8"?>
<!-- Generator: Adobe Illustrator 21.1.0, SVG Export Plug-In . SVG Version: 6.00 Build 0)  -->
<svg version="1.1" id="Layer_1" xmlns="http://www.w3.org/2000/svg" xmlns:xlink="http://www.w3.org/1999/xlink" x="0px" y="0px"
	 viewBox="-5 -10 302 315" style="enable-background:new 0 0 302 302;" xml:space="preserve">
<style type="text/css">
	.st0{fill:#FFFFFF;stroke:#FFFFFF;stroke-width:7;stroke-miterlimit:10;}
</style>
<title>Yard Cleaning</title>
<g id="Layer_2">
	<g id="Layer_1-2">
		<g id="_Group_">
			<path id="_Path_" class="st0" d="M81,58.9c16.3,0,29.5-13.1,29.5-29.4c0-16.3-13.1-29.5-29.4-29.5S51.6,13.2,51.6,29.5
				c0,0,0,0,0,0C51.6,45.8,64.8,58.9,81,58.9z"/>
			<path id="_Compound_Path_" class="st0" d="M172.6,212.1v-73.9c5.9-3.2,8.1-10.7,4.9-16.6c-1.1-2.1-2.8-3.7-4.9-4.9V25.5
				c0-4.2-3.4-7.6-7.6-7.6s-7.6,3.4-7.6,7.6l0,0v87l-16.8-3.8l-23.5-38c-2.6-4.3-7.3-5.8-12-5.8c-5.9,0-44.6,0-48.4,0
				c-5.2,0-10.4,2.2-12.6,7.2l-42,92c-3,6.2-0.5,13.8,5.8,16.8s13.8,0.5,16.8-5.8c0.1-0.2,0.2-0.4,0.3-0.6l20.3-44.4
				c0,6.6,0,69.1,0,156.7c0,8.3,6.8,15.1,15.1,15.1c8.3,0,15.1-6.8,15.1-15.1v-90h11v90c0.2,8.3,7.2,14.9,15.5,14.7
				c8-0.2,14.5-6.7,14.7-14.7v-2l33.4-45.6l-14.9,45.1c-0.9,2.7,0.6,5.5,3.2,6.4c2.7,0.9,5.5-0.6,6.4-3.2l15.1-45.7v45
				c0,2.8,2.3,5.1,5.1,5.1s5.1-2.3,5.1-5.1v-45l15.1,45.7c0.9,2.7,3.7,4.1,6.4,3.2c2.7-0.9,4.1-3.7,3.2-6.4l-14.9-45.1l36.4,49.7
				c1.7,2.3,4.8,2.7,7.1,1.1c2.3-1.7,2.7-4.8,1.1-7.1l0,0L172.6,212.1z M116.8,267.6c0-93.3,0-86.2,0-149.8l5.3,8.6
				c1.8,2.9,4.6,4.9,7.9,5.7l27.4,6.2v73.8L116.8,267.6z"/>
			<path id="_Path_2" class="st0" d="M250.5,232c-4.9,1-14.4,3.3-17.1,6c-6.8,6.8-7,13.1-3.3,16.9c3.7,3.8,10.1,3.5,16.9-3.3
				c2.7-2.7,5-12.2,6-17.1c0.2-0.7-0.1-1.4-0.6-1.9C251.8,232.1,251.1,231.9,250.5,232z"/>
			<path id="_Path_3" class="st0" d="M268.8,269.2c-3.8,0.9-10.7,7.7-14.2,11.3c-0.8,0.8-0.7,2.1,0.1,2.9c0.2,0.2,0.4,0.3,0.7,0.4
				c4.7,1.8,13.9,4.9,17.7,4c9.4-2.1,12.9-7.4,11.8-12.5S278.1,267.1,268.8,269.2z"/>
			<path id="_Path_4" class="st0" d="M289.5,232.5c-3.1-2.3-12.8-3.3-17.8-3.6c-0.7,0-1.4,0.3-1.8,0.8c-0.4,0.5-0.5,1.3-0.3,1.9
				c1.7,4.7,5.2,13.8,8.3,16.2c7.6,5.8,14,5.2,17.2,1S297.2,238.3,289.5,232.5z"/>
			<path id="_Path_5" class="st0" d="M292,201.8c3.2-2.2,7-11.2,8.9-15.9c0.2-0.6,0.2-1.4-0.2-1.9c-0.4-0.6-1-0.9-1.7-0.9
				c-5,0.1-14.8,0.7-17.9,2.9c-7.9,5.5-9.2,11.7-6.2,16S284.1,207.3,292,201.8z"/>
		</g>
	</g>
</g>
</svg>
